{
  "type": "service_account",
  "project_id": "skilappfinal",
  "private_key_id": "1f345571c70d183ed556e2f8ad2b7149a2d4c053",
  "private_key": "-----BEGIN PRIVATE KEY-----\nMIIEvgIBADANBgkqhkiG9w0BAQEFAASCBKgwggSkAgEAAoIBAQCSb/ZLeeZyG6k6\n4N8I0NbGyckPMXZb5wCjEU886tENlJ8em5MGEj3CyKQKEUr6GiKfX4izIUO196jl\nbWvr7NzchzY3/nJkgyXC0KIAQo1UfG5Sg6VaGK3w83nYnBcM7AjTEsv5hfxD7D1u\nlvDieWPoT90lfFQn3jHRtSMhyuPG8NZOjzrqGklqvxLpzX0yemheP9+PN+ris4Tm\nZ0oHwKSm9ejag05BOXvEdbkDtvhiurONQ9c4b3mcZ4/R/6Acd8idGqXaQzba0Opu\nH/kCbArIhjhVcSstsHxGekDAdyENH33hz2Yh1cl7NUhnZyxq5GH4u4CR5kIbAxCi\n/46LIKeJAgMBAAECggEAPOXn6NqAferH9W7oAfwLna7z+OgKf0yxZJ9BsyU6HCo3\nBB0RxwAWBCe5pGAtrJXq2Rl7OXd3d7jPWd4n9/zQmrt2TlH4U5mAviRSgsYqjTyU\nCqepv66sw5wVi4HaSirsvo6+Gf5g+wRHRfLqqVxvMoDoCHtMaioK0NnCCv8bu7Ly\nd2LRhJN3P/jpqoDzXgzSogFNS2HOQ/blPuf/mvza2dxuG0N/eeDtHILrlmhyaUPf\ngL/cdEk5TGxQwGqoL30CWucVPjNIQzQeH383ML343da402mZKICTc6oBKg5+A6A6\n0nQD9Um7yihmPMMgjZwmNVO0+pH6RqlOvrqTsiki2wKBgQDEAz8j+86w3nV6RCp7\n3lmWYC9/2oyYsFIUAdj2PEX3bV2iJZvHuQGHn4wjgQswydYURBMEo9PrL9GKL+Rw\nB84rn9kGPIDe939MP9QIAPqHlhMYd6T5r2WMphrwdCOoK27HsEiWMQSRPmGaaAPS\nVSmcuw97zxh+BhF01aR6NVTdMwKBgQC/QLNqidaBTREWR0dg06GFS8SIS6270pcB\nyRfpDbWQAsn/gGpnkJHfWBbv2ndvOyrnA5OAwKKpS8aAhgzi11bBPf9vS9kF3nC4\nNSZ7CQzXs9T87spJMNdLlMSLBH8q4ajpTa74/pEVfBddwI4l255DvGSYsn0XZVsi\nb4M2JI9QUwKBgQCJ+xcZh4rqas8b8JxPcihyeOc3A2vxmD1PJDXMsIU4Nd6x4/OT\nVqLDDAckfxSXlZ2Dyp/wpjrp1lGVCz2tt3DkuLOXdkPpsSQFUvE5aSbzBywODzst\nINFFfzB7j+YB3gEvxOJ0B7GFZPpkLVBzYcvXLr8pkpFVNYRYUIRmGuDQjQKBgQCE\n2ZjHpL/QSYxZAWJfrCJCyYLXelpQYdRrdRia1t8MDiPqy3UeQ5pQnowwSH02Us9W\ncXGAuk9DclOM65D/8b1dtoc89F7oaL+79Y+pX3wASfblS6pQdRDYe5qbRqBfVSlU\nBpZId+yoE+7XPO6A9bFWNANc3n9uRQWtQfDPJ0416QKBgCjf/u4LHZpREyaa6xuX\nzlFhCQ5kMStLQfeT+Sw1pzbWLnSE4B9WNXA9qwrIkSQ5XqC5TcYk1U8SOKf5pBdw\nV0kgmgNeECVizz3b7DHoxV/XKEbq1Q2fINdxP9gLi+zPtpHc4JHlLBOjLSNylL79\nF2nFYc3vV41bNh4CPw4Znf8I\n-----END PRIVATE KEY-----\n",
  "client_email": "dialogflow-chyxrh@skilappfinal.iam.gserviceaccount.com",
  "client_id": "107784787472287316512",
  "auth_uri": "https://accounts.google.com/o/oauth2/auth",
  "token_uri": "https://accounts.google.com/o/oauth2/token",
  "auth_provider_x509_cert_url": "https://www.googleapis.com/oauth2/v1/certs",
  "client_x509_cert_url": "https://www.googleapis.com/robot/v1/metadata/x509/dialogflow-chyxrh%40skilappfinal.iam.gserviceaccount.com"
}
